Dialectic with Data - Tidy Tuesday - 12/20
…
weather_forecasts |> 
  filter(city == "NEWARK", state == "NJ")

# A tibble: 3,904 × 10
   date       city   state high_or_low forecas…¹ obser…² forec…³ obser…⁴ forec…⁵
   <date>     <chr>  <chr> <chr>           <dbl>   <dbl>   <dbl>   <dbl> <chr>  
 1 2021-01-30 NEWARK NJ    high               48      34      NA    0    <NA>   
 2 2021-01-30 NEWARK NJ    high               36      34      NA    0    <NA>   
 3 2021-01-30 NEWARK NJ    high               24      34      NA    0    <NA>   
 4 2021-01-30 NEWARK NJ    high               12      34      31    0    SUNNY  
 5 2021-01-30 NEWARK NJ    low                48      19      NA    0    <NA>   
 6 2021-01-30 NEWARK NJ    low                36      19      NA    0    <NA>   
 7 2021-01-30 NEWARK NJ    low                24      19      17    0    SUNNY  
 8 2021-01-30 NEWARK NJ    low                12      19      17    0    MOCLDY 
 9 2021-01-31 NEWARK NJ    high               48      26      NA    0.41 <NA>   
10 2021-01-31 NEWARK NJ    high               36      26      30    0.41 MOCLDY 
# … with 3,894 more rows, 1 more variable: possible_error <chr>, and
#   abbreviated variable names ¹​forecast_hours_before, ²​observed_temp,
#   ³​forecast_temp, ⁴​observed_precip, ⁵​forecast_outlook
…
forecast_tsbl |> group_by_key() |> 
  slice(n()-12:0) |> 
  View()
  
train <- forecast_tsbl[]

#impute
forecast_tsbl |> filter(is.na(observed_temp))

# A tsibble: 47,744 x 10 [1D]
# Key:       city, state, high_or_low, forecast_hours_before [1,336]
   date       city    state high_or_low foreca…¹ obser…² forec…³ obser…⁴ forec…⁵
   <date>     <fct>   <fct> <fct>       <fct>      <dbl>   <dbl>   <dbl> <chr>  
 1 2021-08-04 ABILENE TX    high        12            NA      90      NA PTCLDY 
 2 2021-08-05 ABILENE TX    high        12            NA      91      NA TSTRMS 
 3 2021-08-06 ABILENE TX    high        12            NA      95      NA SUNNY  
 4 2021-08-07 ABILENE TX    high        12            NA      96      NA SUNNY  
 5 2021-08-08 ABILENE TX    high        12            NA      99      NA SUNNY  
 6 2021-08-09 ABILENE TX    high        12            NA     100      NA SUNNY  
 7 2021-09-29 ABILENE TX    high        12            NA      92      NA TSTRMS 
 8 2021-10-02 ABILENE TX    high        12            NA      82      NA PTCLDY 
 9 2021-10-04 ABILENE TX    high        12            NA      86      NA SUNNY  
10 2021-10-06 ABILENE TX    high        12            NA      86      NA PTCLDY 
# … with 47,734 more rows, 1 more variable: possible_error <chr>, and
#   abbreviated variable names ¹​forecast_hours_before, ²​observed_temp,
#   ³​forecast_temp, ⁴​observed_precip, ⁵​forecast_outlook

forecast_tsbl |> filter(is.na(forecast_temp))

# A tsibble: 37,313 x 10 [1D]
# Key:       city, state, high_or_low, forecast_hours_before [1,336]
   date       city    state high_or_low foreca…¹ obser…² forec…³ obser…⁴ forec…⁵
   <date>     <fct>   <fct> <fct>       <fct>      <dbl>   <dbl>   <dbl> <chr>  
 1 2021-02-17 ABILENE TX    high        12            20      NA    0    <NA>   
 2 2021-08-22 ABILENE TX    high        12            97      NA    0    <NA>   
 3 2021-08-23 ABILENE TX    high        12            97      NA    0    <NA>   
 4 2021-08-24 ABILENE TX    high        12            98      NA    0    <NA>   
 5 2021-09-30 ABILENE TX    high        12            88      NA    2.18 <NA>   
 6 2021-10-03 ABILENE TX    high        12            85      NA    0    <NA>   
 7 2021-10-05 ABILENE TX    high        12            87      NA    0    <NA>   
 8 2021-10-07 ABILENE TX    high        12            93      NA    0    <NA>   
 9 2021-11-11 ABILENE TX    high        12            68      NA    0    <NA>   
10 2022-01-10 ABILENE TX    high        12            NA      NA   NA    <NA>   
# … with 37,303 more rows, 1 more variable: possible_error <chr>, and
#   abbreviated variable names ¹​forecast_hours_before, ²​observed_temp,
#   ³​forecast_temp, ⁴​observed_precip, ⁵​forecast_outlook

forecast_tsbl |> 
  filter(city == "NEWARK") |> 
  select(observed_temp, forecast_temp) |> 
  #keys and index are automatically kept even when not specified
  summarise(avg_obs_temp = mean(observed_temp, na.rm = TRUE),
            avg_pred_temp = mean(forecast_temp, na.rm = TRUE))

# A tsibble: 488 x 3 [1D]
   date       avg_obs_temp avg_pred_temp
   <date>            <dbl>         <dbl>
 1 2021-01-30         26.5          21.7
 2 2021-01-31         24            27.4
 3 2021-02-01         30.5          29.5
 4 2021-02-02         31.5          30.8
 5 2021-02-03         33.5          31.4
 6 2021-02-04         36.5          35.8
 7 2021-02-05         38            36.1
 8 2021-02-06         37            34.4
 9 2021-02-07         25            26.2
10 2021-02-08         24.5          26.1
# … with 478 more rows
…
