Dialectic with Data - Tidy Tuesday - World Cup Edition
…
$wcmatches
# A tibble: 900 × 15
    year country city      stage home_…¹ away_…² home_…³ away_…⁴ outcome win_c…⁵
   <dbl> <chr>   <chr>     <chr> <chr>   <chr>     <dbl>   <dbl> <chr>   <chr>  
 1  1930 Uruguay Montevid… Grou… France  Mexico        4       1 H       <NA>   
 2  1930 Uruguay Montevid… Grou… Belgium United…       0       3 A       <NA>   
 3  1930 Uruguay Montevid… Grou… Brazil  Yugosl…       1       2 A       <NA>   
 4  1930 Uruguay Montevid… Grou… Peru    Romania       1       3 A       <NA>   
 5  1930 Uruguay Montevid… Grou… Argent… France        1       0 H       <NA>   
 6  1930 Uruguay Montevid… Grou… Chile   Mexico        3       0 H       <NA>   
 7  1930 Uruguay Montevid… Grou… Bolivia Yugosl…       0       4 A       <NA>   
 8  1930 Uruguay Montevid… Grou… Paragu… United…       0       3 A       <NA>   
 9  1930 Uruguay Montevid… Grou… Uruguay Peru          1       0 H       <NA>   
10  1930 Uruguay Montevid… Grou… Argent… Mexico        6       3 H       <NA>   
# … with 890 more rows, 5 more variables: winning_team <chr>,
#   losing_team <chr>, date <date>, month <chr>, dayofweek <chr>, and
#   abbreviated variable names ¹​home_team, ²​away_team, ³​home_score,
#   ⁴​away_score, ⁵​win_conditions

$worldcups
# A tibble: 21 × 10
    year host        winner      second third fourth goals…¹ teams games atten…²
   <dbl> <chr>       <chr>       <chr>  <chr> <chr>    <dbl> <dbl> <dbl>   <dbl>
 1  1930 Uruguay     Uruguay     Argen… USA   Yugos…      70    13    18  434000
 2  1934 Italy       Italy       Czech… Germ… Austr…      70    16    17  395000
 3  1938 France      Italy       Hunga… Braz… Sweden      84    15    18  483000
 4  1950 Brazil      Uruguay     Brazil Swed… Spain       88    13    22 1337000
 5  1954 Switzerland West Germa… Hunga… Aust… Urugu…     140    16    26  943000
 6  1958 Sweden      Brazil      Sweden Fran… West …     126    16    35  868000
 7  1962 Chile       Brazil      Czech… Chile Yugos…      89    16    32  776000
 8  1966 England     England     West … Port… Sovie…      89    16    32 1614677
 9  1970 Mexico      Brazil      Italy  West… Urugu…      95    16    32 1673975
10  1974 Germany     West Germa… Nethe… Pola… Brazil      97    16    38 1774022
# … with 11 more rows, and abbreviated variable names ¹​goals_scored,
#   ²​attendance

matches <- tt$wcmatches
wcups <- tt$worldcups

matches %>% view()

matches %>% 
  count(home_score, away_score, sort = TRUE)

# A tibble: 49 × 3
   home_score away_score     n
        <dbl>      <dbl> <int>
 1          1          0    94
 2          2          1    90
 3          1          1    87
 4          0          1    78
 5          0          0    71
 6          2          0    59
 7          1          2    51
 8          0          2    40
 9          3          1    36
10          2          2    34
# … with 39 more rows
…
wcups %>% view()

wcups %>% 
  count(year, wt = goals_scored, sort = TRUE)

# A tibble: 21 × 2
    year     n
   <dbl> <dbl>
 1  1998   171
 2  2014   171
 3  2018   169
 4  2002   161
 5  2006   147
 6  1982   146
 7  2010   145
 8  1994   141
 9  1954   140
10  1986   132
# … with 11 more rows
…
