Dialectic with Data - R resources for Practicum
…
glance(mpg_lm) # glance returns model metrics

# A tibble: 1 × 12
  r.squared adj.r.squa…¹ sigma stati…²  p.value    df logLik   AIC   BIC devia…³
      <dbl>        <dbl> <dbl>   <dbl>    <dbl> <dbl>  <dbl> <dbl> <dbl>   <dbl>
1     0.843        0.826  2.51    50.2 2.18e-11     3  -72.7  155.  163.    177.
# … with 2 more variables: df.residual <int>, nobs <int>, and abbreviated
#   variable names ¹​adj.r.squared, ²​statistic, ³​deviance

# augment with 'newdata = ' returns entire dataset plus fitted and residual values
augment(mpg_lm, newdata = mtcars)

# A tibble: 32 × 14
   .rownames     mpg   cyl  disp    hp  drat    wt  qsec    vs    am  gear  carb
   <chr>       <dbl> <dbl> <dbl> <dbl> <dbl> <dbl> <dbl> <dbl> <dbl> <dbl> <dbl>
 1 Mazda RX4    21       6  160    110  3.9   2.62  16.5     0     1     4     4
 2 Mazda RX4 …  21       6  160    110  3.9   2.88  17.0     0     1     4     4
 3 Datsun 710   22.8     4  108     93  3.85  2.32  18.6     1     1     4     1
 4 Hornet 4 D…  21.4     6  258    110  3.08  3.22  19.4     1     0     3     1
 5 Hornet Spo…  18.7     8  360    175  3.15  3.44  17.0     0     0     3     2
 6 Valiant      18.1     6  225    105  2.76  3.46  20.2     1     0     3     1
 7 Duster 360   14.3     8  360    245  3.21  3.57  15.8     0     0     3     4
 8 Merc 240D    24.4     4  147.    62  3.69  3.19  20       1     0     4     2
 9 Merc 230     22.8     4  141.    95  3.92  3.15  22.9     1     0     4     2
10 Merc 280     19.2     6  168.   123  3.92  3.44  18.3     1     0     4     4
# … with 22 more rows, and 2 more variables: .fitted <dbl>, .resid <dbl>

# augment without newdata uses training data and returns more metrics
augment(mpg_lm)

# A tibble: 32 × 11
   .rowna…¹   mpg    wt    hp   cyl .fitted .resid   .hat .sigma .cooksd .std.…²
   <chr>    <dbl> <dbl> <dbl> <dbl>   <dbl>  <dbl>  <dbl>  <dbl>   <dbl>   <dbl>
 1 Mazda R…  21    2.62   110     6    22.8 -1.82  0.0750   2.53 1.15e-2  -0.754
 2 Mazda R…  21    2.88   110     6    22.0 -1.01  0.0582   2.55 2.67e-3  -0.416
 3 Datsun …  22.8  2.32    93     4    26.0 -3.16  0.0856   2.48 4.05e-2  -1.32 
 4 Hornet …  21.4  3.22   110     6    20.9  0.464 0.0533   2.56 5.08e-4   0.190
 5 Hornet …  18.7  3.44   175     8    17.2  1.53  0.110    2.54 1.29e-2   0.647
 6 Valiant   18.1  3.46   105     6    20.3 -2.15  0.0699   2.52 1.48e-2  -0.888
 7 Duster …  14.3  3.57   245     8    15.5 -1.19  0.118    2.55 8.53e-3  -0.506
 8 Merc 24…  24.4  3.19    62     4    23.8  0.636 0.157    2.55 3.55e-3   0.276
 9 Merc 230  22.8  3.15    95     4    23.3 -0.496 0.152    2.56 2.06e-3  -0.214
10 Merc 280  19.2  3.44   123     6    20.0 -0.789 0.0469   2.55 1.27e-3  -0.322
# … with 22 more rows, and abbreviated variable names ¹​.rownames, ²​.std.resid
…
